{
  "posts": [
    {
      "id": 1,
      "title": "json-server",
      "author": "typicode"
    },
    {
      "id": 2,
      "title": "json-server",
      "author": "typicode"
    },
    {
      "id": 3,
      "title": "json-server",
      "author": "typicode"
    },
    {
      "id": 6,
      "title": "json-server",
      "author": "typicode"
    },
    {
      "id": 8,
      "title": "abracadabra",
      "author": "typicode"
    }
  ],
  "comments": [
    {
      "id": 1,
      "body": "some commit",
      "postId": 1
    }
  ],
  "profile": [
    {
      "name": "typicode"
    }
  ]
}